…
Now, we take this expanded, imputed `AMD` data frame and find the average number of 
steps taken per 5-minute interval within a day type (weekday or weekend).

```r
    avg_steps_impWD <- AMD %>%
    group_by(interval, daytype) %>% # group by both 5-minute interval and weekday vs weekend
    summarize(avgsteps = mean(steps), .groups = "keep")
    avg_steps_impWD # print result 
```

```
## # A tibble: 576 x 3
## # Groups:   interval, daytype [576]
##    interval daytype avgsteps
##       <int> <fct>      <dbl>
##  1        0 weekday  2.25   
##  2        0 weekend  0.215  
##  3        5 weekday  0.445  
##  4        5 weekend  0.0425 
##  5       10 weekday  0.173  
##  6       10 weekend  0.0165 
##  7       15 weekday  0.198  
##  8       15 weekend  0.0189 
##  9       20 weekday  0.0990 
## 10       20 weekend  0.00943
## # … with 566 more rows
```
…
